<?xml version="1.0" standalone="no"?>
<!DOCTYPE svg PUBLIC "-//W3C//DTD SVG 1.1//EN" "http://www.w3.org/Graphics/SVG/1.1/DTD/svg11.dtd" >
<svg xmlns="http://www.w3.org/2000/svg">
<metadata></metadata>
<defs>
<font id="bentonsansbold" horiz-adv-x="1181" >
<font-face units-per-em="2048" ascent="1638" descent="-410" />
<missing-glyph horiz-adv-x="550" />
<glyph horiz-adv-x="0" />
<glyph horiz-adv-x="682" />
<glyph unicode=" "  horiz-adv-x="550" />
<glyph unicode="&#x09;" horiz-adv-x="550" />
<glyph unicode="&#xa0;" horiz-adv-x="550" />
<glyph unicode="!" horiz-adv-x="731" d="M250 479l-84 1037h414l-82 -1037h-248zM197 0v303h352v-303h-352z" />
<glyph unicode="&#x22;" horiz-adv-x="942" d="M567 963l-35 401v152h279v-152l-35 -401h-209zM164 963l-35 401v152h281v-152l-35 -401h-211z" />
<glyph unicode="#" horiz-adv-x="1562" d="M197 0l79 381h-225v244h277l55 266h-244v244h295l80 381h295l-80 -381h229l80 381h295l-80 -381h256v-244h-307l-55 -266h274v-244h-325l-80 -381h-295l80 381h-228l-81 -381h-295zM623 625h229l55 266h-227z" />
<glyph unicode="$" horiz-adv-x="1398" d="M602 -18q-337 34 -514 325l223 144q75 -104 141 -162t160 -76v434q-85 21 -147 41.5t-129 57t-109.5 80.5t-70 112t-27.5 152q0 192 127 310.5t346 135.5v141h197v-147q108 -15 195 -56.5t141.5 -92t103.5 -121.5l-221 -160q-51 75 -102 120.5t-123 65.5v-399 q93 -22 162 -45.5t136 -60.5t108.5 -83.5t67 -114t25.5 -151.5q0 -87 -28.5 -161.5t-86.5 -136t-154.5 -101.5t-223.5 -51v-172h-197v172zM612 1298q-89 -12 -134.5 -60t-45.5 -120t43 -113.5t137 -70.5v364zM793 211q99 14 147.5 60t48.5 130q0 75 -47 121.5t-149 77.5 v-389z" />
<glyph unicode="%" horiz-adv-x="2269" d="M500 549q-192 0 -302 134.5t-110 360.5q0 227 111 361.5t301 134.5q188 0 297.5 -134t109.5 -359q0 -226 -109 -362t-298 -136zM541 0l905 1516h283l-906 -1516h-282zM1772 -20q-190 0 -300 135t-110 360q0 227 111 362.5t301 135.5q188 0 297.5 -135t109.5 -361 q0 -225 -109.5 -361t-299.5 -136zM500 756q137 0 137 288q0 285 -137 285q-142 0 -142 -282q0 -291 142 -291zM1774 188q137 0 137 289q0 283 -139 283q-140 0 -140 -283q0 -289 142 -289z" />
<glyph unicode="&#x26;" horiz-adv-x="1521" d="M604 -29q-277 0 -424 108t-147 296q0 71 19 133t49.5 107t78 86t94 69t107.5 57q-96 187 -96 334q0 77 26 144.5t77 121.5t135 85.5t192 31.5q100 0 177.5 -27.5t123.5 -75t69 -105.5t23 -124t-19.5 -123.5t-50 -100.5t-78.5 -83t-94 -68t-108 -59q23 -34 92 -119 q90 -113 166 -186q75 129 96 307h281q-40 -277 -156 -465q123 -67 279 -67v-268q-285 3 -484 116q-181 -125 -428 -125zM653 952q86 49 133.5 108t47.5 140q0 53 -27.5 91t-85.5 38t-95.5 -38.5t-37.5 -110.5q0 -107 65 -228zM606 201q115 0 207 59q-81 77 -207 234 q-38 48 -106 141q-133 -89 -133 -213q0 -104 65 -162.5t174 -58.5z" />
<glyph unicode="'" horiz-adv-x="540" d="M164 963l-35 401v152h281v-152l-35 -401h-211z" />
<glyph unicode="(" horiz-adv-x="827" d="M614 -420q-260 219 -392 462t-132 542t132 541.5t392 461.5l152 -160q-332 -369 -332 -843q0 -248 90.5 -465t251.5 -389z" />
<glyph unicode=")" horiz-adv-x="827" d="M213 -420l-162 150q160 173 250 389.5t90 464.5q0 478 -332 843l154 160q260 -219 391 -461t131 -542t-131 -543t-391 -461z" />
<glyph unicode="*" horiz-adv-x="1040" d="M375 618l-172 103l190 276l-338 -22v192l340 -24l-192 278l172 103l145 -305l146 305l174 -103l-193 -278l338 24v-192l-338 22l193 -276l-172 -103l-148 306z" />
<glyph unicode="+" horiz-adv-x="1323" d="M530 178v410h-393v260h393v409h263v-409h393v-260h-393v-410h-263z" />
<glyph unicode="," horiz-adv-x="577" d="M160 -246l86 246h-133v317h352v-272l-152 -291h-153z" />
<glyph unicode="-" horiz-adv-x="731" d="M96 532v222h539v-222h-539z" />
<glyph unicode="." horiz-adv-x="577" d="M113 0v317h352v-317h-352z" />
<glyph unicode="/" horiz-adv-x="1312" d="M47 0l881 1516h338l-881 -1516h-338z" />
<glyph unicode="0" horiz-adv-x="1425" d="M713 -29q-196 0 -339 98t-217.5 275.5t-74.5 413.5t74.5 413t217.5 275t339 98q295 0 461.5 -213t166.5 -573t-166.5 -573.5t-461.5 -213.5zM713 231q146 0 222.5 134t76.5 393q0 257 -77.5 388.5t-221.5 131.5q-299 0 -299 -520q0 -257 77.5 -392t221.5 -135z" />
<glyph unicode="1" horiz-adv-x="937" d="M66 0v260h274v954q-57 -30 -131.5 -49.5t-138.5 -19.5v272q178 6 278 99h314v-1256h239v-260h-835z" />
<glyph unicode="2" horiz-adv-x="1257" d="M53 0v33q0 73 8.5 131.5t36.5 130.5t76 137t132 139.5t200 149.5q177 112 227 155q81 69 96 150q5 25 5 55q0 86 -52.5 135.5t-146.5 49.5q-90 0 -178.5 -57t-153.5 -160l-235 165q68 105 148 176t189.5 112.5t239.5 41.5q242 0 377 -118.5t135 -321.5q0 -55 -7 -99.5 t-28 -96.5t-57 -98.5t-97.5 -100t-146.5 -107.5q-179 -114 -272.5 -196t-99.5 -146h718v-260h-1114z" />
<glyph unicode="3" horiz-adv-x="1275" d="M612 -29q-376 0 -589 260l206 185q72 -88 171 -134t198 -46q127 0 193.5 54t66.5 156q0 122 -88 173t-274 51h-76v243h82q81 0 140.5 11t94.5 28t55.5 43t27.5 51.5t7 57.5q0 168 -219 168q-191 0 -342 -144l-182 209q101 96 251 150.5t312 54.5q246 0 378 -101t132 -286 q0 -134 -77 -228t-220 -124q167 -27 256.5 -128t89.5 -249q0 -211 -162.5 -333t-431.5 -122z" />
<glyph unicode="4" horiz-adv-x="1384" d="M780 0v297h-735v242l690 977h367v-957h256v-262h-256v-297h-322zM389 559h391v559h-4z" />
<glyph unicode="5" horiz-adv-x="1247" d="M600 -29q-343 0 -567 201l168 219q76 -70 176.5 -112.5t202.5 -42.5q145 0 216.5 72.5t71.5 195.5q0 130 -67 202t-195 72q-160 0 -278 -145l-215 67l61 816h920l-17 -252h-647l-29 -336q42 41 120 67.5t186 26.5q237 0 365 -139t128 -367q0 -246 -161.5 -395.5 t-438.5 -149.5z" />
<glyph unicode="6" horiz-adv-x="1339" d="M700 -29q-136 0 -249 49.5t-195.5 144t-128 239t-45.5 327.5q0 169 39 307.5t104 231t152 155.5t180.5 91t192.5 28q155 0 256 -34.5t184 -92.5l-141 -225q-69 46 -133.5 67t-151.5 21q-148 0 -244.5 -116.5t-111.5 -323.5q177 137 378 137q103 0 190 -28.5t155 -85 t106.5 -150.5t38.5 -217q0 -236 -159 -380.5t-417 -144.5zM715 223q116 0 182 74.5t66 183.5q0 51 -12 93.5t-39 79t-76 57t-117 20.5q-181 0 -311 -127q12 -189 90 -285t217 -96z" />
<glyph unicode="7" horiz-adv-x="1103" d="M166 0l579 1247h-720v269h1060v-246l-583 -1270h-336z" />
<glyph unicode="8" horiz-adv-x="1306" d="M653 -29q-286 0 -448 111.5t-162 308.5q0 134 93 236t243 164q-90 47 -144.5 92t-88 115t-33.5 163q0 74 35 141.5t100 122t170 87t235 32.5q133 0 239 -33t170 -88t97 -122t33 -140q0 -118 -68.5 -211t-193.5 -149q64 -28 110 -54t90.5 -62t71.5 -76.5t43.5 -95.5 t16.5 -122q0 -196 -162 -308t-447 -112zM676 909q105 52 149.5 101.5t44.5 119.5t-53 124.5t-162 54.5q-110 0 -164.5 -50.5t-54.5 -121.5q0 -81 57.5 -130t182.5 -98zM653 199q127 0 201 60t74 151q0 84 -68 141t-231 123q-124 -61 -187 -123.5t-63 -140.5q0 -90 74 -150.5 t200 -60.5z" />
<glyph unicode="9" horiz-adv-x="1339" d="M590 -29q-159 0 -263.5 36t-187.5 97l144 218q73 -50 137.5 -72.5t154.5 -22.5q147 0 243.5 120.5t111.5 328.5q-177 -137 -379 -137q-102 0 -188.5 28.5t-154.5 85t-106.5 150.5t-38.5 217q0 236 159 380t417 144q279 0 447.5 -198.5t168.5 -561.5q0 -169 -38.5 -307.5 t-103.5 -231t-151.5 -155.5t-179.5 -91t-192 -28zM621 784q182 0 309 127q-21 373 -305 373q-118 0 -183 -71t-65 -179q0 -51 12 -93t38.5 -79t76 -57.5t117.5 -20.5z" />
<glyph unicode=":" horiz-adv-x="604" d="M125 774v318h354v-318h-354zM125 0v317h354v-317h-354z" />
<glyph unicode=";" horiz-adv-x="604" d="M125 774v318h354v-318h-354zM168 -246l88 246h-131v317h354v-264l-157 -299h-154z" />
<glyph unicode="&#x3c;" horiz-adv-x="1323" d="M1206 98l-1083 475v181l1083 475v-271l-731 -294l731 -295v-271z" />
<glyph unicode="=" horiz-adv-x="1323" d="M143 788v234h1035v-234h-1035zM143 322v233h1035v-233h-1035z" />
<glyph unicode="&#x3e;" horiz-adv-x="1323" d="M127 98v271l731 295l-731 294v271l1083 -475v-181z" />
<glyph unicode="?" horiz-adv-x="1216" d="M432 475q-8 73 -8 148q0 109 57.5 182t159.5 129q91 50 127.5 94t36.5 115q0 63 -51 101t-142 38q-96 0 -192 -51.5t-160 -126.5l-199 186q228 254 586 254q228 0 354.5 -104t126.5 -271q0 -69 -18 -124.5t-53.5 -97.5t-75 -72t-94.5 -60q-29 -15 -50.5 -27t-40 -26 t-31 -23.5t-23.5 -26t-17 -26t-11 -31t-7 -34t-3.5 -41t-1.5 -46v-56.5v-3h-270zM391 0v303h352v-303h-352z" />
<glyph unicode="@" horiz-adv-x="1777" d="M870 -29q-178 0 -326 59t-248 162.5t-155 248t-55 313.5t59 315t163.5 251t256 164.5t328.5 59.5t326.5 -57t253 -158t161.5 -243t58 -308q0 -210 -107 -338.5t-297 -128.5q-115 0 -179.5 47.5t-92.5 135.5q-67 -71 -143.5 -113.5t-178.5 -42.5q-128 0 -201 82.5 t-73 232.5q0 247 113 398t278 151q90 0 143.5 -27t94.5 -77l14 88h250l-101 -611q-25 -129 113 -129q99 0 160 86t61 238q0 283 -179.5 458t-475.5 175t-472.5 -180t-176.5 -469q0 -190 76 -338t222 -233t341 -85q230 0 385 105l69 -101q-186 -131 -465 -131zM803 528 q84 0 166 82l51 316q-34 37 -67.5 53t-80.5 16q-95 0 -147.5 -93t-52.5 -222q0 -76 29.5 -114t101.5 -38z" />
<glyph unicode="A" horiz-adv-x="1460" d="M35 0l536 1522h318l536 -1522h-338l-112 338h-516l-117 -338h-307zM541 580h356l-174 516h-4z" />
<glyph unicode="B" horiz-adv-x="1460" d="M156 0v1516h606q90 0 164 -9t146 -34.5t121.5 -66.5t79.5 -108.5t30 -156.5q0 -151 -81 -236.5t-208 -111.5v-5q58 -10 105.5 -27.5t90 -47.5t71 -70t45.5 -97t17 -128q0 -110 -45.5 -193t-124.5 -131t-174 -71t-206 -23h-637zM483 891h246q254 0 254 182q0 92 -60 138 t-190 46h-250v-366zM483 254h269q266 0 266 203q0 198 -281 198h-254v-401z" />
<glyph unicode="C" horiz-adv-x="1492" d="M772 -29q-150 0 -274.5 49t-217.5 144.5t-144.5 247.5t-51.5 348q0 192 53.5 343.5t147.5 246.5t217.5 144.5t269.5 49.5q112 0 204.5 -24t158.5 -65.5t116.5 -102.5t82 -130.5t52.5 -154.5l-315 -92q-20 70 -43.5 120t-58.5 91t-84.5 61.5t-114.5 20.5q-170 0 -261 -135 t-91 -373q0 -242 93 -381t263 -139q129 0 204 79t116 240l313 -70q-29 -119 -77.5 -210.5t-124 -162t-185 -108t-248.5 -37.5z" />
<glyph unicode="D" horiz-adv-x="1515" d="M156 0v1516h465q143 0 262.5 -24.5t222.5 -80.5t174 -141.5t111.5 -213.5t40.5 -290q0 -167 -41 -298t-112.5 -218t-175 -144t-222.5 -81.5t-260 -24.5h-465zM487 270h156q245 0 350 115.5t105 376.5q0 247 -107 361t-352 114h-152v-967z" />
<glyph unicode="E" horiz-adv-x="1296" d="M156 0v1516h1032v-279h-699v-326h506v-264h-506v-377h736v-270h-1069z" />
<glyph unicode="F" horiz-adv-x="1200" d="M156 0v1516h1001v-279h-668v-369h476v-264h-476v-604h-333z" />
<glyph unicode="G" horiz-adv-x="1558" d="M748 -29q-168 0 -296.5 59t-208 166.5t-119.5 250.5t-40 317q0 357 186 568.5t504 211.5q113 0 204.5 -24t172 -78.5t140.5 -150.5t95 -232l-305 -84q-47 156 -121 224.5t-188 68.5q-43 0 -84.5 -10.5t-92 -43t-87.5 -84.5t-62.5 -145t-25.5 -215t23 -217.5t59 -153 t85.5 -94.5t98 -51t100.5 -14q124 0 206.5 72.5t105.5 199.5h-264v248h581v-760h-268v209h-4q-13 -37 -44 -76t-79 -76.5t-119.5 -61.5t-152.5 -24z" />
<glyph unicode="H" horiz-adv-x="1574" d="M156 0v1516h333v-588h596v588h334v-1516h-334v647h-596v-647h-333z" />
<glyph unicode="I" horiz-adv-x="675" d="M172 0v1516h332v-1516h-332z" />
<glyph unicode="J" horiz-adv-x="1095" d="M463 -29q-146 0 -252 45t-191 123l187 209q122 -110 239 -110q189 0 189 260v1018h334v-1070q0 -223 -122.5 -349t-383.5 -126z" />
<glyph unicode="K" horiz-adv-x="1470" d="M156 0v1516h333v-627l508 627h389l-514 -592l568 -924h-377l-408 672l-166 -187v-485h-333z" />
<glyph unicode="L" horiz-adv-x="1200" d="M156 0v1516h333v-1246h668v-270h-1001z" />
<glyph unicode="M" horiz-adv-x="1859" d="M156 0v1516h440l338 -1115h4l315 1115h451v-1516h-322v1034h-4q-24 -135 -84 -338l-227 -696h-295l-225 696q-55 180 -88 355h-4v-1051h-299z" />
<glyph unicode="N" horiz-adv-x="1591" d="M156 0v1516h333l635 -967h4v967h308v-1516h-308l-661 975h-4v-975h-307z" />
<glyph unicode="O" horiz-adv-x="1597" d="M799 -29q-112 0 -215.5 30t-194.5 94t-159 155.5t-107 222t-39 285.5t39 285.5t107 221.5t159 155t194.5 94t215.5 30q111 0 214 -30t194 -94t158.5 -155t106.5 -221.5t39 -285.5t-39 -285.5t-106.5 -222t-158.5 -155.5t-194 -94t-214 -30zM799 240q175 0 278 140 t103 378q0 237 -103 373.5t-278 136.5q-177 0 -279 -136t-102 -374t102.5 -378t278.5 -140z" />
<glyph unicode="P" horiz-adv-x="1384" d="M156 0v1516h551q104 0 189 -12t167.5 -44.5t138 -85.5t89.5 -140.5t34 -203.5q0 -491 -623 -491h-215v-539h-331zM487 797h228q151 0 217.5 56.5t66.5 168.5q0 110 -66 165.5t-218 55.5h-228v-446z" />
<glyph unicode="Q" horiz-adv-x="1597" d="M1106 -406q-225 0 -358.5 112t-139.5 290q-112 26 -206 87t-166.5 154.5t-113 227t-40.5 293.5q0 155 39 285.5t107 221.5t159 155t194.5 94t215.5 30q111 0 214 -30t194 -94t158.5 -155t106.5 -221.5t39 -285.5q0 -166 -44.5 -304t-122.5 -232t-178 -153t-218 -81 q10 -30 26 -52t40.5 -36t48.5 -22.5t60.5 -12.5t65.5 -5t75 -1h104v-265h-260zM797 240q175 0 277 140t102 378q0 237 -102 373.5t-277 136.5q-177 0 -280 -136.5t-103 -373.5q0 -238 103 -378t280 -140z" />
<glyph unicode="R" horiz-adv-x="1443" d="M156 0v1516h569q290 0 443 -112.5t153 -356.5q0 -176 -79.5 -281t-235.5 -152l337 -614h-352l-315 571h-193v-571h-327zM483 829h228q148 0 216 48t68 161q0 110 -68 157.5t-216 47.5h-228v-414z" />
<glyph unicode="S" horiz-adv-x="1417" d="M719 -29q-234 0 -394.5 100t-250.5 273l252 150q63 -124 170.5 -191t238.5 -67q120 0 192 44.5t72 129.5q0 81 -72 127.5t-235 91.5q-204 57 -283 92q-186 80 -242 217q-28 68 -28 154q0 210 150 331t397 121q112 0 209 -25t170 -70.5t127 -98t96 -117.5l-231 -176 q-60 97 -161.5 156t-211.5 59q-104 0 -161.5 -41.5t-57.5 -110.5q0 -36 14 -64.5t37 -49t65.5 -40t85 -33t109.5 -32.5q71 -19 115 -32.5t109 -37.5t105 -46.5t86.5 -59t72.5 -76.5t43.5 -96t17.5 -121q0 -94 -36 -175.5t-107.5 -146t-190.5 -102t-272 -37.5z" />
<glyph unicode="T" horiz-adv-x="1327" d="M496 0v1237h-451v279h1237v-279h-453v-1237h-333z" />
<glyph unicode="U" horiz-adv-x="1484" d="M743 -25q-308 0 -460 159t-152 446v936h334v-928q0 -342 283 -342q145 0 211.5 86t66.5 256v928h328v-934q0 -289 -151.5 -448t-459.5 -159z" />
<glyph unicode="V" horiz-adv-x="1429" d="M557 -6l-522 1522h338l346 -1084h4l358 1084h314l-523 -1522h-315z" />
<glyph unicode="W" horiz-adv-x="1957" d="M446 0l-403 1516h336l160 -691q53 -204 73 -331h4q16 111 70 329l154 693h307l164 -697q7 -30 20 -81t19.5 -78.5t15.5 -72.5t16 -93h4q7 49 15.5 93.5t14.5 69.5t19 78t19 80l154 701h307l-395 -1516h-285l-240 1055h-4l-256 -1055h-289z" />
<glyph unicode="X" horiz-adv-x="1484" d="M66 0l485 801l-442 715h380l271 -455l256 455h344l-432 -717l491 -799h-370l-322 530l-311 -530h-350z" />
<glyph unicode="Y" horiz-adv-x="1415" d="M541 0v643l-523 873h344l347 -590l348 590h340l-525 -873v-643h-331z" />
<glyph unicode="Z" horiz-adv-x="1351" d="M61 0v229l791 1010h-739v277h1159v-238l-774 -1008h774v-270h-1211z" />
<glyph unicode="[" horiz-adv-x="909" d="M141 -410v1926h709v-230h-377v-1466h377v-230h-709z" />
<glyph unicode="\" horiz-adv-x="1251" d="M897 0l-881 1516h338l881 -1516h-338z" />
<glyph unicode="]" horiz-adv-x="909" d="M57 -410v230h377v1466h-377v230h709v-1926h-709z" />
<glyph unicode="^" horiz-adv-x="1132" d="M190 1212l265 351h221l264 -351h-186l-191 152l-184 -152h-189z" />
<glyph unicode="_" horiz-adv-x="1024" d="M0 -324v230h1024v-230h-1024z" />
<glyph unicode="`" horiz-adv-x="1024" d="M504 1208l-305 355h331l191 -355h-217z" />
<glyph unicode="a" d="M365 -16q-131 0 -221.5 80t-90.5 215q0 190 167.5 295.5t524.5 134.5v26q0 131 -147 131q-185 0 -358 -135l-140 189q216 194 545 194q220 0 321 -106.5t101 -321.5v-420q0 -192 31 -266h-328q-25 80 -25 160q-156 -176 -380 -176zM496 231q154 0 249 95v202 q-370 -38 -370 -192q0 -51 32.5 -78t88.5 -27z" />
<glyph unicode="b" horiz-adv-x="1277" d="M786 -16q-202 0 -331 145v-129h-330v1516h330v-592q137 190 336 190q192 0 305.5 -146t113.5 -421t-115 -419t-309 -144zM674 231q102 0 154.5 81.5t52.5 232.5q0 141 -52 219t-159 78q-108 0 -215 -107v-403q56 -53 105.5 -77t113.5 -24z" />
<glyph unicode="c" horiz-adv-x="1136" d="M602 -23q-80 0 -154 18t-145 60.5t-122.5 106t-83 162t-31.5 221.5q0 126 34.5 226t89 163t128.5 104.5t147.5 58.5t150.5 17q86 0 157 -18.5t120.5 -48t89 -74.5t64.5 -90.5t45 -102.5l-277 -92q-31 101 -79.5 142.5t-123.5 41.5q-102 0 -159.5 -84.5t-57.5 -244.5 q0 -155 52 -244.5t161 -89.5q153 0 215 194l273 -94q-137 -332 -494 -332z" />
<glyph unicode="d" horiz-adv-x="1277" d="M485 -16q-193 0 -306 139.5t-113 413.5q0 276 115.5 426.5t307.5 150.5q214 0 332 -160v562h330v-1250q0 -193 33 -266h-338q-10 20 -17.5 70.5t-7.5 93.5q-132 -180 -336 -180zM608 231q110 0 213 107v403q-56 53 -105.5 77t-111.5 24q-103 0 -156 -77t-53 -226 q0 -142 53.5 -225t159.5 -83z" />
<glyph unicode="e" d="M623 -23q-89 0 -168 18t-151 60.5t-124 106.5t-83 162t-31 221q0 122 35.5 221.5t92 162.5t130.5 106t146.5 61t143.5 18q51 0 99 -7.5t99 -26.5t94.5 -49t82.5 -78t67 -109.5t44 -148t16 -189.5v-49h-723q11 -129 78 -189.5t176 -60.5q91 0 177 37.5t147 93.5l127 -197 q-191 -164 -475 -164zM397 651h424q-24 228 -209 228q-81 0 -139 -56.5t-76 -171.5z" />
<glyph unicode="f" horiz-adv-x="829" d="M223 0v852h-182v240h182v75q0 60 8 107.5t32.5 96t65 80.5t110 52.5t163.5 20.5q43 0 113 -5.5t86 -9.5v-229q-32 8 -96 8q-73 0 -113.5 -26t-40.5 -105v-65h237v-240h-237v-852h-328z" />
<glyph unicode="g" horiz-adv-x="1259" d="M555 -410q-157 0 -267.5 16.5t-175 49t-93.5 76.5t-29 104q0 74 52.5 129.5t135.5 89.5q-74 49 -74 131q0 64 44 121.5t114 102.5q-88 52 -134 133t-46 180q0 170 131 280.5t360 110.5q235 0 367 -119q54 46 133 77t148 36v-252q-87 0 -185 -25q21 -51 21 -108 q0 -171 -128 -280t-356 -109q-79 0 -167 18q-37 -29 -37 -55q0 -29 28.5 -39.5t94.5 -13.5l163 -11q281 -10 404 -82.5t123 -226.5q0 -109 -82 -185.5t-221 -112.5t-324 -36zM578 516q88 0 137 54.5t49 140.5t-48.5 140t-137.5 54q-88 0 -137.5 -54t-49.5 -140t50 -140.5 t137 -54.5zM608 -244q128 0 206.5 30t78.5 83q0 37 -18.5 57t-82.5 34t-190 20l-172 8q-38 3 -72 6q-61 -40 -61 -98q0 -72 73 -106t238 -34z" />
<glyph unicode="h" horiz-adv-x="1265" d="M125 0v1516h330v-596q149 194 376 194q147 0 233.5 -77.5t86.5 -239.5v-797h-330v692q0 75 -30.5 112.5t-96.5 37.5q-111 0 -239 -109v-733h-330z" />
<glyph unicode="i" horiz-adv-x="602" d="M135 1241v264h332v-264h-332zM137 0v1092h328v-1092h-328z" />
<glyph unicode="j" horiz-adv-x="602" d="M135 1241v264h332v-264h-332zM111 -416q-43 0 -114 5.5t-87 9.5v223q36 -12 94 -12q68 0 100.5 35t32.5 114v1133h328v-1196q0 -52 -6.5 -91.5t-28.5 -83t-59 -72t-103.5 -47t-156.5 -18.5z" />
<glyph unicode="k" horiz-adv-x="1198" d="M125 0v1516h330v-832l340 408h354l-356 -408l376 -684h-340l-241 444l-133 -149v-295h-330z" />
<glyph unicode="l" horiz-adv-x="602" d="M137 0v1516h328v-1516h-328z" />
<glyph unicode="m" horiz-adv-x="1908" d="M125 0v1092h330v-172q61 80 151.5 137t206.5 57q248 0 299 -194q62 79 153.5 136.5t207.5 57.5q160 0 239.5 -90.5t79.5 -243.5v-780h-330v692q0 78 -25 114t-94 36q-57 0 -107 -27.5t-112 -81.5v-733h-329v692q0 78 -25 114t-94 36q-57 0 -107 -27t-114 -82v-733h-330z " />
<glyph unicode="n" horiz-adv-x="1265" d="M127 0v1092h330v-172q149 194 377 194q146 0 231.5 -77.5t85.5 -239.5v-797h-328v692q0 75 -30.5 112.5t-98.5 37.5q-109 0 -237 -109v-733h-330z" />
<glyph unicode="o" horiz-adv-x="1247" d="M625 -23q-83 0 -160 18t-150.5 60.5t-128 106t-87.5 162t-33 221.5q0 124 33 223t87 162.5t127.5 106t150.5 60t161 17.5q83 0 159.5 -17.5t150 -60t127.5 -106t87 -162.5t33 -223q0 -123 -33 -221.5t-87 -162t-127.5 -106t-150 -60.5t-159.5 -18zM625 209 q113 0 170 89.5t57 244.5q0 147 -55.5 238t-171.5 91q-115 0 -172.5 -88t-57.5 -241q0 -96 21.5 -168t74.5 -119t134 -47z" />
<glyph unicode="p" horiz-adv-x="1277" d="M125 -410v1502h330v-166q138 188 336 188q192 0 305.5 -146t113.5 -421t-115 -419t-309 -144q-202 0 -331 145v-539h-330zM674 231q102 0 154.5 81.5t52.5 232.5q0 141 -52 219t-159 78q-108 0 -215 -107v-403q56 -53 105.5 -77t113.5 -24z" />
<glyph unicode="q" horiz-adv-x="1277" d="M821 -410v566q-138 -172 -336 -172q-193 0 -306 139.5t-113 413.5q0 276 115.5 426.5t307.5 150.5q210 0 332 -158v136h330v-1502h-330zM608 231q110 0 213 107v403q-56 53 -105.5 77t-111.5 24q-103 0 -156 -77t-53 -226q0 -142 53.5 -225t159.5 -83z" />
<glyph unicode="r" horiz-adv-x="866" d="M125 0v1092h330v-183h2q131 205 368 205h11l-5 -293q-36 6 -86 6q-176 0 -290 -149v-678h-330z" />
<glyph unicode="s" horiz-adv-x="1093" d="M555 -23q-312 0 -510 168l131 185q74 -65 177 -103.5t202 -38.5q79 0 126.5 27.5t47.5 79.5q0 55 -45.5 82.5t-161.5 48.5q-41 7 -69.5 13t-67.5 15.5t-66 19.5t-60 25.5t-55 33t-44.5 41.5t-35.5 52t-21.5 64t-8.5 78q0 161 118.5 253.5t305.5 92.5q159 0 270.5 -38 t208.5 -115l-129 -187q-174 119 -321 119q-70 0 -109 -25.5t-39 -70.5q0 -48 44.5 -72.5t150.5 -44.5q43 -7 72.5 -13t69.5 -15.5t68.5 -19.5t62 -25t56.5 -32t46 -40.5t36.5 -50.5t22 -62.5t8.5 -75.5q0 -96 -39 -168.5t-107.5 -115.5t-152.5 -64t-182 -21z" />
<glyph unicode="t" horiz-adv-x="874" d="M584 -14q-96 0 -163 14.5t-107.5 39t-63 67t-30 88t-7.5 112.5v545h-182v240h182v374h328v-374h280v-240h-280v-473q0 -89 31.5 -121.5t119.5 -32.5q72 0 109 13v-236q-20 -5 -92.5 -10.5t-124.5 -5.5z" />
<glyph unicode="u" horiz-adv-x="1265" d="M434 -23q-147 0 -233 78t-86 240v797h329v-701q0 -75 31 -113t98 -38q109 0 238 110v742h330v-1092h-330v170q-152 -193 -377 -193z" />
<glyph unicode="v" horiz-adv-x="1105" d="M387 -2l-391 1094h340l229 -727h4l230 727h309l-389 -1094h-332z" />
<glyph unicode="w" horiz-adv-x="1587" d="M324 0l-320 1092h332l94 -392q44 -173 72 -333h4q34 183 76 342l94 383h256l100 -390q32 -112 78 -335h4q36 185 76 331l100 394h293l-319 -1092h-306l-163 666h-4l-164 -666h-303z" />
<glyph unicode="x" horiz-adv-x="1122" d="M23 0l374 563l-348 529h346l189 -301l178 301h332l-353 -529l369 -563h-344l-209 330l-203 -330h-331z" />
<glyph unicode="y" horiz-adv-x="1146" d="M297 -418q-172 0 -311 39l69 254q112 -29 207 -29q54 0 86.5 22t52.5 73l21 53l-418 1098h340l240 -709h4l241 709h320l-459 -1207q-40 -100 -86.5 -163.5t-123.5 -101.5t-183 -38z" />
<glyph unicode="z" horiz-adv-x="1085" d="M59 0v170l529 682h-490v240h897v-174l-530 -685h571v-233h-977z" />
<glyph unicode="{" horiz-adv-x="903" d="M569 -410q-138 0 -214 83.5t-76 220.5v296q0 75 -13.5 123.5t-43.5 75t-70 37t-101 10.5v234q123 0 175.5 50.5t52.5 194.5v297q0 137 76 220.5t214 83.5h291v-230h-90q-160 0 -160 -162v-254q0 -144 -43 -215t-131 -100v-4q88 -29 131 -100t43 -215v-254 q0 -162 160 -162h90v-230h-291z" />
<glyph unicode="|" horiz-adv-x="819" d="M246 -410v1926h325v-1926h-325z" />
<glyph unicode="}" horiz-adv-x="903" d="M43 -410v230h90q160 0 160 162v284q0 74 11 123.5t35.5 81t53 48.5t74.5 32v4q-46 15 -74.5 32t-53 48.5t-35.5 81t-11 123.5v284q0 164 -158 164h-90l-2 228h322q138 0 199 -68t61 -205v-328q0 -75 13 -123t43 -75t70 -37t101 -10v-234q-61 0 -101 -10.5t-69.5 -37 t-43 -75t-13.5 -123.5v-327q0 -137 -61 -205t-199 -68h-322z" />
<glyph unicode="~" horiz-adv-x="1071" d="M692 762q-51 0 -96.5 18t-73.5 39.5t-62 39.5t-63 18q-84 0 -84 -111h-178q0 326 244 326q51 0 96.5 -18t73.5 -39.5t62 -39.5t63 -18q84 0 84 110h176q0 -325 -242 -325z" />
<glyph unicode="&#xa1;" horiz-adv-x="731" d="M182 1212v304h353v-304h-353zM152 0l81 1036h248l84 -1036h-413z" />
<glyph unicode="&#xa2;" horiz-adv-x="1146" d="M344 35q-126 65 -202 192.5t-76 317.5q0 121 34 220t89 162.5t128 106.5t147 61.5t150 18.5q34 0 48 -2l57 195h168l-68 -226q197 -69 279 -301l-254 -92q-32 104 -105 154l-186 -635q32 -4 53 -4q75 0 142.5 48.5t103.5 151.5l250 -94q-137 -332 -502 -332q-52 0 -102 9 l-74 -250h-168zM602 879q-103 -3 -168 -88.5t-65 -247.5q0 -169 59 -252z" />
<glyph unicode="&#xa3;" horiz-adv-x="1411" d="M465 684h-281v178h172q-77 140 -77 260q0 182 126 302t332 120q86 0 157 -15.5t121.5 -45.5t88 -66t64 -84.5t42.5 -93.5t29 -100l-287 -62q-18 99 -62 156t-138 57q-71 0 -113.5 -44.5t-42.5 -121.5q0 -44 16.5 -94t31 -77t50.5 -91h365v-178h-277q39 -107 39 -223 q0 -111 -51 -213q82 -45 154 -45q80 0 121 47.5t45 171.5h280q-4 -75 -14.5 -134t-37 -121t-67.5 -103t-110 -67t-160 -26q-183 0 -342 113q-142 -113 -322 -113q-79 0 -143 24t-106.5 80.5t-42.5 137.5q0 124 86 195t204 71q106 0 224 -71v28q0 111 -74 248zM481 219 q-47 44 -84 66t-75 22q-41 0 -65 -23.5t-24 -62.5q0 -37 24.5 -60.5t66.5 -23.5q98 0 157 82z" />
<glyph unicode="&#xa4;" horiz-adv-x="1509" d="M254 813h-211v176h229q33 184 121.5 311t210 185.5t270.5 58.5q227 0 356 -105.5t193 -303.5l-282 -105q-42 132 -97.5 193t-162.5 61q-228 0 -285 -295h326v-176h-347v-51q0 -44 3 -88h344v-178h-324q29 -133 98 -202t189 -69q97 0 159.5 66.5t104.5 210.5l287 -90 q-66 -214 -204 -327.5t-349 -113.5q-231 0 -390.5 130.5t-213.5 394.5h-236v178h213q-2 29 -2 86v53z" />
<glyph unicode="&#xa5;" horiz-adv-x="1400" d="M532 0v188h-366v179h366v139h-366v176h360l-497 834h346l327 -560l328 560h342l-502 -834h367v-176h-371v-139h371v-179h-371v-188h-334z" />
<glyph unicode="&#xa6;" horiz-adv-x="819" d="M246 678v838h325v-838h-325zM246 -410v838h325v-838h-325z" />
<glyph unicode="&#xa7;" horiz-adv-x="1193" d="M592 -410q-91 0 -164.5 17.5t-121.5 44.5t-85 67t-57 78t-35 84l236 105q66 -179 213 -179q141 0 141 132q0 32 -16 60.5t-54 58t-76 52.5t-106 60q-55 31 -88.5 51t-81.5 53t-76.5 63t-57 69.5t-41.5 85.5t-13 98q0 103 56.5 184t137.5 133q-71 60 -103 124.5t-32 148.5 q0 157 115.5 260.5t316.5 103.5q381 0 471 -291l-233 -104q-66 178 -224 178q-80 0 -115.5 -37t-35.5 -94q0 -26 14 -51t32 -43.5t59 -45t69 -42.5t88 -49q55 -31 88.5 -51t81.5 -53t76.5 -63t57 -69.5t41.5 -85.5t13 -98q0 -105 -57 -186.5t-139 -133.5q69 -60 98 -122.5 t29 -147.5q0 -158 -111.5 -261.5t-310.5 -103.5zM725 340q92 63 92 139q0 73 -49.5 123.5t-212.5 142.5q-28 15 -88 50q-92 -63 -92 -140q0 -73 49.5 -123.5t212.5 -142.5q29 -14 88 -49z" />
<glyph unicode="&#xa8;" horiz-adv-x="1085" d="M616 1196v303h279v-303h-279zM182 1196v303h279v-303h-279z" />
<glyph unicode="&#xa9;" horiz-adv-x="1775" d="M885 -29q-219 0 -398.5 103t-282 282.5t-102.5 397.5q0 164 61.5 310.5t166 251.5t251 166.5t310.5 61.5q163 0 308 -60.5t249 -164.5t164.5 -249t60.5 -308q0 -164 -61.5 -310.5t-166.5 -252t-251 -167t-309 -61.5zM891 115q133 0 249 48.5t198.5 133t130 203 t47.5 254.5q0 182 -81.5 330t-226.5 232.5t-323 84.5q-133 0 -249 -48.5t-198.5 -133t-130 -203t-47.5 -254.5q0 -182 81.5 -330t226.5 -232.5t323 -84.5zM881 317q-166 0 -265.5 117.5t-99.5 327.5q0 209 99 325.5t272 116.5q142 0 226 -72t110 -198l-183 -47 q-21 73 -54 109t-97 36q-79 0 -123.5 -73t-44.5 -197q0 -127 43.5 -197.5t124.5 -70.5q63 0 100 40t55 123q185 -51 189 -51q-38 -139 -120 -214t-232 -75z" />
<glyph unicode="&#xaa;" horiz-adv-x="915" d="M301 737q-94 0 -156.5 52.5t-62.5 148.5q0 272 483 311v19q0 88 -102 88q-128 0 -246 -92l-104 131q148 137 385 137q156 0 227.5 -73.5t71.5 -225.5v-293q0 -136 22 -186h-235q-19 63 -19 108q-109 -125 -264 -125zM393 913q102 0 172 70v141q-254 -24 -254 -139 q0 -35 22 -53.5t60 -18.5z" />
<glyph unicode="&#xab;" horiz-adv-x="1296" d="M924 0l-342 547l342 545h313l-328 -545l328 -547h-313zM389 0l-340 547l340 545h313l-325 -545l325 -547h-313z" />
<glyph unicode="&#xac;" horiz-adv-x="1556" d="M520 1225l137 -13l-51 304h344l-51 -304l135 13l-4 53h240l-2 -33l32 4v-239l-55 4l-12 -137l303 51v-344l-303 51l12 -133l55 4v-240l-34 2l4 -35h-240l4 56l-135 12l51 -301h-344l51 301l-135 -12l4 -56h-239l4 35l-35 -2v240l53 -4l13 133l-302 -51v344l302 -51 l-13 137l-53 -4v239l33 -2l-2 31h239zM1051 1030l-152 12v-165h164zM657 877v165l-151 -12l-14 -153h165zM899 635v-164l152 12l12 152h-164zM504 485l153 -14v164h-165z" />
<glyph unicode="&#xad;" horiz-adv-x="731" d="M96 532v222h539v-222h-539z" />
<glyph unicode="&#xae;" horiz-adv-x="1775" d="M885 -29q-219 0 -398.5 103t-282 282.5t-102.5 397.5q0 164 61.5 310.5t166 251.5t251 166.5t310.5 61.5q163 0 308 -60.5t249 -164.5t164.5 -249t60.5 -308q0 -164 -61.5 -310.5t-166.5 -252t-251 -167t-309 -61.5zM891 115q133 0 249 48.5t198.5 133t130 203 t47.5 254.5q0 182 -81.5 330t-226.5 232.5t-323 84.5q-133 0 -249 -48.5t-198.5 -133t-130 -203t-47.5 -254.5q0 -182 81.5 -330t226.5 -232.5t323 -84.5zM578 348v854h331q159 0 245.5 -70t86.5 -208q0 -182 -158 -248l168 -328h-215l-151 301h-105v-301h-202zM780 797h117 q73 0 108 27.5t35 86.5q0 111 -143 111h-117v-225z" />
<glyph unicode="&#xaf;" horiz-adv-x="1024" d="M172 1245v234h680v-234h-680z" />
<glyph unicode="&#xb0;" horiz-adv-x="849" d="M426 885q-145 0 -239.5 92.5t-94.5 234.5t94.5 235t239.5 93q143 0 237.5 -92t94.5 -234t-94.5 -235.5t-237.5 -93.5zM426 1040q69 0 112.5 48t43.5 126q0 77 -43 123.5t-113 46.5q-71 0 -114.5 -46.5t-43.5 -123.5q0 -78 43.5 -126t114.5 -48z" />
<glyph unicode="&#xb1;" horiz-adv-x="2002" d="M223 0v852h-182v240h182v75q0 357 340 357q48 0 107.5 -5.5t77.5 -9.5v-227q-18 6 -80 6q-117 0 -117 -131v-65h330v75q0 357 340 357q42 0 103.5 -5.5t80.5 -9.5v-227q-18 6 -82 6q-115 0 -115 -131v-65h199v-240h-199v-852h-327v852h-330v-852h-328zM1536 0v1516h330 v-1516h-330z" />
<glyph unicode="&#xb2;" horiz-adv-x="978" d="M115 541v53q0 48 5 85t22 83.5t47.5 88t83.5 89.5t128 96q114 73 141 98q46 43 46 97q0 41 -25.5 63.5t-68.5 22.5q-47 0 -103 -37.5t-100 -110.5l-178 127q76 122 169 181t222 59q162 0 252 -81t90 -218q0 -93 -52 -172.5t-188 -155.5q-155 -86 -180 -157h426v-211h-737 z" />
<glyph unicode="&#xb3;" horiz-adv-x="978" d="M481 524q-125 0 -228 51.5t-169 149.5l160 139q93 -127 215 -127q143 0 143 107q0 62 -44.5 89.5t-145.5 27.5h-78v182h82q93 0 130.5 24.5t37.5 71.5q0 37 -26.5 58.5t-76.5 21.5q-117 0 -223 -98l-139 161q161 154 383 154q166 0 254 -70t88 -196q0 -70 -36 -125.5 t-110 -81.5q176 -54 176 -225q0 -152 -105.5 -233t-287.5 -81z" />
<glyph unicode="&#xb4;" horiz-adv-x="1024" d="M303 1208l191 355h331l-305 -355h-217z" />
<glyph unicode="&#xb5;" horiz-adv-x="1275" d="M125 -410v1502h330v-695q0 -149 129 -149q114 0 237 110v734h330v-1092h-330v170q-111 -137 -258 -172q-68 -10 -108 8v-416h-330z" />
<glyph unicode="&#xb6;" horiz-adv-x="1306" d="M586 -410v1051q-241 4 -369.5 116t-128.5 318q0 92 31 172t89.5 140t148 94.5t200.5 34.5h647v-1926h-221v1680h-174v-1680h-223z" />
<glyph unicode="&#xb7;" horiz-adv-x="591" d="M113 530v318h366v-318h-366z" />
<glyph unicode="&#xb8;" horiz-adv-x="1024" d="M539 -414q-187 0 -303 76l59 98q91 -61 217 -61q47 0 73.5 18t26.5 52q0 55 -65 55q-42 0 -86 -35l-82 41l53 170h135l-22 -92q50 31 131 31q62 0 105.5 -39t43.5 -105q0 -96 -81 -152.5t-205 -56.5z" />
<glyph unicode="&#xb9;" horiz-adv-x="851" d="M150 537v208h165v517q-70 -25 -161 -25v215q72 3 113 16t71 45h240v-768h145v-208h-573z" />
<glyph unicode="&#xba;" horiz-adv-x="954" d="M477 737q-58 0 -112.5 12.5t-106 42.5t-90 74.5t-61.5 113.5t-23 155q0 88 23.5 157.5t61.5 114t90 74t105.5 41.5t112.5 12t112.5 -12t105.5 -41.5t90 -74t61.5 -114t23.5 -157.5q0 -86 -23 -155t-61.5 -113.5t-90 -74.5t-106 -42.5t-112.5 -12.5zM477 905 q79 0 118.5 62t39.5 168q0 102 -38.5 164.5t-119.5 62.5q-79 0 -118.5 -61t-39.5 -166q0 -103 38 -166.5t120 -63.5z" />
<glyph unicode="&#xbb;" horiz-adv-x="1296" d="M594 0l328 547l-328 545h313l342 -545l-342 -547h-313zM61 0l326 547l-326 545h314l340 -545l-340 -547h-314z" />
<glyph unicode="&#xbc;" horiz-adv-x="2168" d="M150 537v208h165v517q-70 -25 -161 -25v215q72 3 113 16t71 45h240v-768h145v-208h-573zM506 0l905 1516h283l-906 -1516h-282zM1665 0v203h-440v166l430 610h272v-573h154v-203h-154v-203h-262zM1493 406h176v262z" />
<glyph unicode="&#xbd;" horiz-adv-x="2234" d="M150 537v208h165v517q-70 -25 -161 -25v215q72 3 113 16t71 45h240v-768h145v-208h-573zM506 0l905 1516h283l-906 -1516h-282zM1374 0v53q0 60 9.5 107t37.5 104t88 115t152 117q113 73 140 97q46 43 46 97q0 41 -25.5 63.5t-68.5 22.5q-49 0 -104.5 -37t-98.5 -110 l-178 129q76 120 169 178.5t222 58.5q162 0 252 -80.5t90 -218.5q0 -93 -51.5 -172t-187.5 -155q-154 -86 -180 -158h425v-211h-737z" />
<glyph unicode="&#xbe;" horiz-adv-x="2248" d="M481 524q-125 0 -228 51.5t-169 149.5l160 139q93 -127 215 -127q143 0 143 107q0 62 -44.5 89.5t-145.5 27.5h-78v182h82q93 0 130.5 24.5t37.5 71.5q0 37 -26.5 58.5t-76.5 21.5q-117 0 -223 -98l-139 161q161 154 383 154q166 0 254 -70t88 -196q0 -70 -36 -125.5 t-110 -81.5q176 -54 176 -225q0 -152 -105.5 -233t-287.5 -81zM586 0l905 1516h283l-906 -1516h-282zM1745 0v203h-440v166l430 610h272v-573h154v-203h-154v-203h-262zM1573 406h176v262z" />
<glyph unicode="&#xbf;" horiz-adv-x="1216" d="M473 1212v304h352v-304h-352zM569 -29q-226 0 -353.5 104t-127.5 271q0 69 18 124.5t54 97.5t75.5 72t94.5 60q28 15 49.5 27t40 26t31.5 23.5t23.5 25.5t16.5 25.5t11 31t7 33.5t3.5 40.5t1.5 46v55.5v6h270q9 -62 9 -147q0 -109 -57.5 -182.5t-160.5 -128.5 q-89 -50 -125 -93.5t-36 -115.5q0 -63 50 -101.5t140 -38.5q96 0 192 51.5t160 127.5l199 -187q-228 -254 -586 -254z" />
<glyph unicode="&#xc0;" horiz-adv-x="1460" d="M35 0l536 1522h318l536 -1522h-338l-112 338h-516l-117 -338h-307zM541 580h356l-174 516h-4zM645 1605l-305 355h331l191 -355h-217z" />
<glyph unicode="&#xc1;" horiz-adv-x="1460" d="M35 0l536 1522h318l536 -1522h-338l-112 338h-516l-117 -338h-307zM541 580h356l-174 516h-4zM600 1605l191 355h331l-305 -355h-217z" />
<glyph unicode="&#xc2;" horiz-adv-x="1460" d="M35 0l536 1522h318l536 -1522h-338l-112 338h-516l-117 -338h-307zM541 580h356l-174 516h-4zM354 1609l265 351h221l264 -351h-186l-191 152l-184 -152h-189z" />
<glyph unicode="&#xc3;" horiz-adv-x="1460" d="M35 0l536 1522h318l536 -1522h-338l-112 338h-516l-117 -338h-307zM541 580h356l-174 516h-4zM889 1585q-51 0 -96.5 18t-73.5 39.5t-62 39.5t-63 18q-84 0 -84 -111h-178q0 326 244 326q51 0 96.5 -18t73.5 -39.5t62 -39.5t63 -18q84 0 84 110h176q0 -325 -242 -325z " />
<glyph unicode="&#xc4;" horiz-adv-x="1460" d="M35 0l536 1522h318l536 -1522h-338l-112 338h-516l-117 -338h-307zM541 580h356l-174 516h-4zM804 1593v303h279v-303h-279zM370 1593v303h279v-303h-279z" />
<glyph unicode="&#xc5;" horiz-adv-x="1460" d="M903 1479l522 -1479h-338l-112 338h-516l-117 -338h-307l522 1481q-51 57 -51 145q0 94 64.5 157.5t160.5 63.5t160.5 -63.5t64.5 -157.5q0 -88 -53 -147zM731 1526q41 0 67.5 28t26.5 72q0 41 -26.5 68.5t-67.5 27.5t-67.5 -27.5t-26.5 -68.5q0 -44 26.5 -72t67.5 -28z M541 580h356l-174 516h-4z" />
<glyph unicode="&#xc6;" horiz-adv-x="2199" d="M31 0l862 1516h1194v-279h-696v-326h503v-264h-503v-377h733v-270h-1063v430h-455l-239 -430h-336zM745 678h316v557h-2z" />
<glyph unicode="&#xc7;" horiz-adv-x="1492" d="M782 -414q-187 0 -303 76l60 98q91 -61 215 -61q102 0 102 70q0 55 -65 55q-42 0 -86 -35l-82 41l45 147q-130 16 -236 72.5t-184 152t-121 238t-43 320.5q0 192 53.5 343.5t147.5 246.5t217.5 144.5t269.5 49.5q112 0 204.5 -24t158.5 -65.5t116.5 -102.5t82 -130.5 t52.5 -154.5l-315 -92q-20 70 -43.5 120t-58.5 91t-84.5 61.5t-114.5 20.5q-170 0 -261 -135t-91 -373q0 -242 93 -381t263 -139q129 0 204 79t116 240l313 -70q-122 -502 -602 -518l-19 -63q50 31 134 31q61 0 104 -39t43 -105q0 -96 -81.5 -152.5t-203.5 -56.5z" />
<glyph unicode="&#xc8;" horiz-adv-x="1296" d="M156 0v1516h1032v-279h-699v-326h506v-264h-506v-377h736v-270h-1069zM627 1605l-305 355h331l191 -355h-217z" />
<glyph unicode="&#xc9;" horiz-adv-x="1296" d="M156 0v1516h1032v-279h-699v-326h506v-264h-506v-377h736v-270h-1069zM483 1605l191 355h331l-305 -355h-217z" />
<glyph unicode="&#xca;" horiz-adv-x="1296" d="M156 0v1516h1032v-279h-699v-326h506v-264h-506v-377h736v-270h-1069zM294 1609l265 351h221l264 -351h-186l-191 152l-184 -152h-189z" />
<glyph unicode="&#xcb;" horiz-adv-x="1296" d="M156 0v1516h1032v-279h-699v-326h506v-264h-506v-377h736v-270h-1069zM753 1593v303h279v-303h-279zM319 1593v303h279v-303h-279z" />
<glyph unicode="&#xcc;" horiz-adv-x="675" d="M172 0v1516h332v-1516h-332zM256 1605l-305 355h331l191 -355h-217z" />
<glyph unicode="&#xcd;" horiz-adv-x="675" d="M172 0v1516h332v-1516h-332zM209 1605l191 355h331l-305 -355h-217z" />
<glyph unicode="&#xce;" horiz-adv-x="675" d="M172 0v1516h332v-1516h-332zM-37 1609l265 351h221l264 -351h-186l-191 152l-184 -152h-189z" />
<glyph unicode="&#xcf;" horiz-adv-x="675" d="M172 0v1516h332v-1516h-332zM411 1593v303h279v-303h-279zM-23 1593v303h279v-303h-279z" />
<glyph unicode="&#xd0;" horiz-adv-x="1515" d="M156 0v649h-136v250h136v617h465q143 0 262.5 -24.5t222.5 -81t174 -143t111.5 -215.5t40.5 -294q0 -163 -41 -291.5t-112.5 -215.5t-175 -144t-222.5 -82t-260 -25h-465zM487 270h156q245 0 350 115.5t105 376.5q0 247 -107 361t-352 114h-152v-338h308v-250h-308v-379z " />
<glyph unicode="&#xd1;" horiz-adv-x="1591" d="M156 0v1516h333l635 -967h4v967h308v-1516h-308l-661 975h-4v-975h-307zM960 1585q-51 0 -96.5 18t-73.5 39.5t-62 39.5t-63 18q-84 0 -84 -111h-178q0 326 244 326q51 0 96.5 -18t73.5 -39.5t62 -39.5t63 -18q84 0 84 110h176q0 -325 -242 -325z" />
<glyph unicode="&#xd2;" horiz-adv-x="1597" d="M799 -29q-112 0 -215.5 30t-194.5 94t-159 155.5t-107 222t-39 285.5t39 285.5t107 221.5t159 155t194.5 94t215.5 30q111 0 214 -30t194 -94t158.5 -155t106.5 -221.5t39 -285.5t-39 -285.5t-106.5 -222t-158.5 -155.5t-194 -94t-214 -30zM799 240q175 0 278 140 t103 378q0 237 -103 373.5t-278 136.5q-177 0 -279 -136t-102 -374t102.5 -378t278.5 -140zM746 1605l-305 355h331l191 -355h-217z" />
<glyph unicode="&#xd3;" horiz-adv-x="1597" d="M799 -29q-112 0 -215.5 30t-194.5 94t-159 155.5t-107 222t-39 285.5t39 285.5t107 221.5t159 155t194.5 94t215.5 30q111 0 214 -30t194 -94t158.5 -155t106.5 -221.5t39 -285.5t-39 -285.5t-106.5 -222t-158.5 -155.5t-194 -94t-214 -30zM799 240q175 0 278 140 t103 378q0 237 -103 373.5t-278 136.5q-177 0 -279 -136t-102 -374t102.5 -378t278.5 -140zM631 1605l191 355h331l-305 -355h-217z" />
<glyph unicode="&#xd4;" horiz-adv-x="1597" d="M799 -29q-112 0 -215.5 30t-194.5 94t-159 155.5t-107 222t-39 285.5t39 285.5t107 221.5t159 155t194.5 94t215.5 30q111 0 214 -30t194 -94t158.5 -155t106.5 -221.5t39 -285.5t-39 -285.5t-106.5 -222t-158.5 -155.5t-194 -94t-214 -30zM799 240q175 0 278 140 t103 378q0 237 -103 373.5t-278 136.5q-177 0 -279 -136t-102 -374t102.5 -378t278.5 -140zM421 1609l265 351h221l264 -351h-186l-191 152l-184 -152h-189z" />
<glyph unicode="&#xd5;" horiz-adv-x="1597" d="M799 -29q-112 0 -215.5 30t-194.5 94t-159 155.5t-107 222t-39 285.5t39 285.5t107 221.5t159 155t194.5 94t215.5 30q111 0 214 -30t194 -94t158.5 -155t106.5 -221.5t39 -285.5t-39 -285.5t-106.5 -222t-158.5 -155.5t-194 -94t-214 -30zM799 240q175 0 278 140 t103 378q0 237 -103 373.5t-278 136.5q-177 0 -279 -136t-102 -374t102.5 -378t278.5 -140zM954 1585q-51 0 -96.5 18t-73.5 39.5t-62 39.5t-63 18q-84 0 -84 -111h-178q0 326 244 326q51 0 96.5 -18t73.5 -39.5t62 -39.5t63 -18q84 0 84 110h176q0 -325 -242 -325z" />
<glyph unicode="&#xd6;" horiz-adv-x="1597" d="M799 -29q-112 0 -215.5 30t-194.5 94t-159 155.5t-107 222t-39 285.5t39 285.5t107 221.5t159 155t194.5 94t215.5 30q111 0 214 -30t194 -94t158.5 -155t106.5 -221.5t39 -285.5t-39 -285.5t-106.5 -222t-158.5 -155.5t-194 -94t-214 -30zM799 240q175 0 278 140 t103 378q0 237 -103 373.5t-278 136.5q-177 0 -279 -136t-102 -374t102.5 -378t278.5 -140zM870 1593v303h279v-303h-279zM436 1593v303h279v-303h-279z" />
<glyph unicode="&#xd7;" horiz-adv-x="1323" d="M336 145l-191 193l322 324l-322 319l191 193l323 -322l320 322l192 -193l-319 -319l324 -320l-191 -192l-323 321z" />
<glyph unicode="&#xd8;" horiz-adv-x="1597" d="M1364 1266q147 -203 147 -508q0 -155 -39 -285.5t-106.5 -222t-158.5 -155.5t-194 -94t-214 -30q-242 0 -424 133l-144 -165l-159 127l159 182q-147 203 -147 510q0 155 39 285.5t107 221.5t159 155t194.5 94t215.5 30q243 0 422 -133l145 166l158 -127zM453 496l581 690 q-95 86 -235 86q-179 0 -284 -138t-105 -376q0 -152 43 -262zM1143 1020l-584 -692q95 -92 240 -92q178 0 282.5 141t104.5 381q0 152 -43 262z" />
<glyph unicode="&#xd9;" horiz-adv-x="1484" d="M743 -25q-308 0 -460 159t-152 446v936h334v-928q0 -342 283 -342q145 0 211.5 86t66.5 256v928h328v-934q0 -289 -151.5 -448t-459.5 -159zM694 1605l-305 355h331l191 -355h-217z" />
<glyph unicode="&#xda;" horiz-adv-x="1484" d="M743 -25q-308 0 -460 159t-152 446v936h334v-928q0 -342 283 -342q145 0 211.5 86t66.5 256v928h328v-934q0 -289 -151.5 -448t-459.5 -159zM555 1605l191 355h331l-305 -355h-217z" />
<glyph unicode="&#xdb;" horiz-adv-x="1484" d="M743 -25q-308 0 -460 159t-152 446v936h334v-928q0 -342 283 -342q145 0 211.5 86t66.5 256v928h328v-934q0 -289 -151.5 -448t-459.5 -159zM366 1609l265 351h221l264 -351h-186l-191 152l-184 -152h-189z" />
<glyph unicode="&#xdc;" horiz-adv-x="1484" d="M743 -25q-308 0 -460 159t-152 446v936h334v-928q0 -342 283 -342q145 0 211.5 86t66.5 256v928h328v-934q0 -289 -151.5 -448t-459.5 -159zM815 1593v303h279v-303h-279zM381 1593v303h279v-303h-279z" />
<glyph unicode="&#xdd;" horiz-adv-x="1415" d="M541 0v643l-523 873h344l347 -590l348 590h340l-525 -873v-643h-331zM514 1609l191 355h331l-305 -355h-217z" />
<glyph unicode="&#xde;" horiz-adv-x="1388" d="M156 0v1516h333v-230h211q104 0 190 -12.5t169 -46.5t140 -88t91.5 -142t34.5 -204q0 -117 -37 -207t-96.5 -144t-144 -88t-169 -46.5t-182.5 -12.5h-207v-295h-333zM489 559h213q151 0 218 57t67 168q0 110 -67 167t-218 57h-213v-449z" />
<glyph unicode="&#xdf;" horiz-adv-x="1398" d="M907 -23q-142 0 -239 42t-148 98l144 174q92 -78 213 -78q80 0 126 53.5t46 139.5q0 61 -23 106.5t-61 73t-97.5 45.5t-120.5 25t-141 10v219q161 1 225 57t64 158q0 73 -54.5 122.5t-152.5 49.5q-118 0 -177.5 -63t-59.5 -201v-1008h-326v999q0 262 147.5 389.5 t407.5 127.5q241 0 380.5 -102t139.5 -286q0 -122 -72.5 -202t-187.5 -115q78 -9 149 -36.5t131 -73.5t96 -118.5t36 -162.5q0 -212 -120.5 -327.5t-324.5 -115.5z" />
<glyph unicode="&#xe0;" d="M365 -16q-131 0 -221.5 80t-90.5 215q0 190 167.5 295.5t524.5 134.5v26q0 131 -147 131q-185 0 -358 -135l-140 189q216 194 545 194q220 0 321 -106.5t101 -321.5v-420q0 -192 31 -266h-328q-25 80 -25 160q-156 -176 -380 -176zM496 231q154 0 249 95v202 q-370 -38 -370 -192q0 -51 32.5 -78t88.5 -27zM549 1208l-305 355h331l191 -355h-217z" />
<glyph unicode="&#xe1;" d="M365 -16q-131 0 -221.5 80t-90.5 215q0 190 167.5 295.5t524.5 134.5v26q0 131 -147 131q-185 0 -358 -135l-140 189q216 194 545 194q220 0 321 -106.5t101 -321.5v-420q0 -192 31 -266h-328q-25 80 -25 160q-156 -176 -380 -176zM496 231q154 0 249 95v202 q-370 -38 -370 -192q0 -51 32.5 -78t88.5 -27zM426 1208l191 355h331l-305 -355h-217z" />
<glyph unicode="&#xe2;" d="M365 -16q-131 0 -221.5 80t-90.5 215q0 190 167.5 295.5t524.5 134.5v26q0 131 -147 131q-185 0 -358 -135l-140 189q216 194 545 194q220 0 321 -106.5t101 -321.5v-420q0 -192 31 -266h-328q-25 80 -25 160q-156 -176 -380 -176zM496 231q154 0 249 95v202 q-370 -38 -370 -192q0 -51 32.5 -78t88.5 -27zM219 1212l265 351h221l264 -351h-186l-191 152l-184 -152h-189z" />
<glyph unicode="&#xe3;" d="M365 -16q-131 0 -221.5 80t-90.5 215q0 190 167.5 295.5t524.5 134.5v26q0 131 -147 131q-185 0 -358 -135l-140 189q216 194 545 194q220 0 321 -106.5t101 -321.5v-420q0 -192 31 -266h-328q-25 80 -25 160q-156 -176 -380 -176zM496 231q154 0 249 95v202 q-370 -38 -370 -192q0 -51 32.5 -78t88.5 -27zM749 1188q-51 0 -96.5 18t-73.5 39.5t-62 39.5t-63 18q-84 0 -84 -111h-178q0 326 244 326q51 0 96.5 -18t73.5 -39.5t62 -39.5t63 -18q84 0 84 110h176q0 -325 -242 -325z" />
<glyph unicode="&#xe4;" d="M365 -16q-131 0 -221.5 80t-90.5 215q0 190 167.5 295.5t524.5 134.5v26q0 131 -147 131q-185 0 -358 -135l-140 189q216 194 545 194q220 0 321 -106.5t101 -321.5v-420q0 -192 31 -266h-328q-25 80 -25 160q-156 -176 -380 -176zM496 231q154 0 249 95v202 q-370 -38 -370 -192q0 -51 32.5 -78t88.5 -27zM671 1196v303h279v-303h-279zM237 1196v303h279v-303h-279z" />
<glyph unicode="&#xe5;" d="M365 -16q-131 0 -221.5 80t-90.5 215q0 190 167.5 295.5t524.5 134.5v26q0 131 -147 131q-185 0 -358 -135l-140 189q216 194 545 194q220 0 321 -106.5t101 -321.5v-420q0 -192 31 -266h-328q-25 80 -25 160q-156 -176 -380 -176zM496 231q154 0 249 95v202 q-370 -38 -370 -192q0 -51 32.5 -78t88.5 -27zM598 1190q-97 0 -161 64t-64 161q0 94 64.5 157.5t160.5 63.5t160.5 -63.5t64.5 -157.5q0 -97 -64 -161t-161 -64zM598 1315q41 0 67.5 28t26.5 72q0 41 -26.5 68.5t-67.5 27.5t-67.5 -27.5t-26.5 -68.5q0 -44 26.5 -72 t67.5 -28z" />
<glyph unicode="&#xe6;" horiz-adv-x="1835" d="M362 -23q-131 0 -220 75.5t-89 209.5q0 391 692 447v26q0 131 -149 131q-186 0 -356 -135l-140 189q216 194 545 194q115 0 193.5 -37t115.5 -100q55 62 141.5 99.5t172.5 37.5q77 0 143.5 -15t134 -56.5t115.5 -107.5t78 -176t30 -253v-49h-720q19 -248 254 -248 q90 0 175.5 37t145.5 92l127 -197q-188 -164 -473 -164q-323 0 -453 224q-192 -224 -463 -224zM1053 651h422q-21 226 -209 226q-81 0 -138 -55.5t-75 -170.5zM496 225q153 0 272 119q-17 61 -20 123q-4 51 -3 68q-201 -21 -285.5 -72.5t-84.5 -132.5q0 -51 32.5 -78 t88.5 -27z" />
<glyph unicode="&#xe7;" horiz-adv-x="1136" d="M608 -414q-187 0 -303 76l60 98q91 -61 215 -61q102 0 102 70q0 55 -66 55q-42 0 -86 -35l-81 41l49 162q-88 13 -162.5 49.5t-136.5 100.5t-97.5 167t-35.5 236q0 126 34.5 226t89 163t128.5 104.5t147.5 58.5t150.5 17q86 0 157 -18.5t120.5 -48t89 -74.5t64.5 -90.5 t45 -102.5l-277 -92q-31 101 -79.5 142.5t-123.5 41.5q-102 0 -159.5 -84.5t-57.5 -244.5q0 -155 52 -244.5t161 -89.5q153 0 215 194l273 -94q-128 -310 -463 -325l-21 -76q50 31 133 31q62 0 105 -39t43 -105q0 -96 -81.5 -152.5t-203.5 -56.5z" />
<glyph unicode="&#xe8;" d="M623 -23q-89 0 -168 18t-151 60.5t-124 106.5t-83 162t-31 221q0 122 35.5 221.5t92 162.5t130.5 106t146.5 61t143.5 18q51 0 99 -7.5t99 -26.5t94.5 -49t82.5 -78t67 -109.5t44 -148t16 -189.5v-49h-723q11 -129 78 -189.5t176 -60.5q91 0 177 37.5t147 93.5l127 -197 q-191 -164 -475 -164zM397 651h424q-24 228 -209 228q-81 0 -139 -56.5t-76 -171.5zM541 1208l-305 355h331l191 -355h-217z" />
<glyph unicode="&#xe9;" d="M623 -23q-89 0 -168 18t-151 60.5t-124 106.5t-83 162t-31 221q0 122 35.5 221.5t92 162.5t130.5 106t146.5 61t143.5 18q51 0 99 -7.5t99 -26.5t94.5 -49t82.5 -78t67 -109.5t44 -148t16 -189.5v-49h-723q11 -129 78 -189.5t176 -60.5q91 0 177 37.5t147 93.5l127 -197 q-191 -164 -475 -164zM397 651h424q-24 228 -209 228q-81 0 -139 -56.5t-76 -171.5zM428 1208l191 355h331l-305 -355h-217z" />
<glyph unicode="&#xea;" d="M623 -23q-89 0 -168 18t-151 60.5t-124 106.5t-83 162t-31 221q0 122 35.5 221.5t92 162.5t130.5 106t146.5 61t143.5 18q51 0 99 -7.5t99 -26.5t94.5 -49t82.5 -78t67 -109.5t44 -148t16 -189.5v-49h-723q11 -129 78 -189.5t176 -60.5q91 0 177 37.5t147 93.5l127 -197 q-191 -164 -475 -164zM397 651h424q-24 228 -209 228q-81 0 -139 -56.5t-76 -171.5zM219 1212l265 351h221l264 -351h-186l-191 152l-184 -152h-189z" />
<glyph unicode="&#xeb;" d="M623 -23q-89 0 -168 18t-151 60.5t-124 106.5t-83 162t-31 221q0 122 35.5 221.5t92 162.5t130.5 106t146.5 61t143.5 18q51 0 99 -7.5t99 -26.5t94.5 -49t82.5 -78t67 -109.5t44 -148t16 -189.5v-49h-723q11 -129 78 -189.5t176 -60.5q91 0 177 37.5t147 93.5l127 -197 q-191 -164 -475 -164zM397 651h424q-24 228 -209 228q-81 0 -139 -56.5t-76 -171.5zM665 1196v303h279v-303h-279zM231 1196v303h279v-303h-279z" />
<glyph unicode="&#xec;" horiz-adv-x="602" d="M137 0v1092h328v-1092h-328zM207 1208l-305 355h331l191 -355h-217z" />
<glyph unicode="&#xed;" horiz-adv-x="602" d="M137 0v1092h328v-1092h-328zM182 1208l191 355h331l-305 -355h-217z" />
<glyph unicode="&#xee;" horiz-adv-x="602" d="M137 0v1092h328v-1092h-328zM-74 1212l265 351h221l264 -351h-186l-191 152l-184 -152h-189z" />
<glyph unicode="&#xef;" horiz-adv-x="602" d="M137 0v1092h328v-1092h-328zM374 1196v303h279v-303h-279zM-60 1196v303h279v-303h-279z" />
<glyph unicode="&#xf0;" horiz-adv-x="1245" d="M623 -23q-247 0 -400 137t-153 375q0 124 38 222.5t103.5 160.5t150 94.5t181.5 32.5q75 0 161.5 -32.5t141.5 -96.5q-31 146 -113 265l-155 -76l-95 170l129 61q-60 60 -123 109l156 176q118 -77 197 -156l166 84l92 -170l-133 -69q209 -302 209 -725q0 -262 -153 -412 t-400 -150zM623 209q104 0 164.5 75t60.5 212q0 132 -60.5 207t-164.5 75q-105 0 -165.5 -73.5t-60.5 -210.5q0 -134 60.5 -209.5t165.5 -75.5z" />
<glyph unicode="&#xf1;" horiz-adv-x="1265" d="M127 0v1092h330v-172q149 194 377 194q146 0 231.5 -77.5t85.5 -239.5v-797h-328v692q0 75 -30.5 112.5t-98.5 37.5q-109 0 -237 -109v-733h-330zM794 1188q-51 0 -96.5 18t-73.5 39.5t-62 39.5t-63 18q-84 0 -84 -111h-178q0 326 244 326q51 0 96.5 -18t73.5 -39.5 t62 -39.5t63 -18q84 0 84 110h176q0 -325 -242 -325z" />
<glyph unicode="&#xf2;" horiz-adv-x="1247" d="M625 -23q-83 0 -160 18t-150.5 60.5t-128 106t-87.5 162t-33 221.5q0 124 33 223t87 162.5t127.5 106t150.5 60t161 17.5q83 0 159.5 -17.5t150 -60t127.5 -106t87 -162.5t33 -223q0 -123 -33 -221.5t-87 -162t-127.5 -106t-150 -60.5t-159.5 -18zM625 209 q113 0 170 89.5t57 244.5q0 147 -55.5 238t-171.5 91q-115 0 -172.5 -88t-57.5 -241q0 -96 21.5 -168t74.5 -119t134 -47zM572 1208l-305 355h331l191 -355h-217z" />
<glyph unicode="&#xf3;" horiz-adv-x="1247" d="M625 -23q-83 0 -160 18t-150.5 60.5t-128 106t-87.5 162t-33 221.5q0 124 33 223t87 162.5t127.5 106t150.5 60t161 17.5q83 0 159.5 -17.5t150 -60t127.5 -106t87 -162.5t33 -223q0 -123 -33 -221.5t-87 -162t-127.5 -106t-150 -60.5t-159.5 -18zM625 209 q113 0 170 89.5t57 244.5q0 147 -55.5 238t-171.5 91q-115 0 -172.5 -88t-57.5 -241q0 -96 21.5 -168t74.5 -119t134 -47zM457 1208l191 355h331l-305 -355h-217z" />
<glyph unicode="&#xf4;" horiz-adv-x="1247" d="M625 -23q-83 0 -160 18t-150.5 60.5t-128 106t-87.5 162t-33 221.5q0 124 33 223t87 162.5t127.5 106t150.5 60t161 17.5q83 0 159.5 -17.5t150 -60t127.5 -106t87 -162.5t33 -223q0 -123 -33 -221.5t-87 -162t-127.5 -106t-150 -60.5t-159.5 -18zM625 209 q113 0 170 89.5t57 244.5q0 147 -55.5 238t-171.5 91q-115 0 -172.5 -88t-57.5 -241q0 -96 21.5 -168t74.5 -119t134 -47zM247 1212l265 351h221l264 -351h-186l-191 152l-184 -152h-189z" />
<glyph unicode="&#xf5;" horiz-adv-x="1247" d="M625 -23q-83 0 -160 18t-150.5 60.5t-128 106t-87.5 162t-33 221.5q0 124 33 223t87 162.5t127.5 106t150.5 60t161 17.5q83 0 159.5 -17.5t150 -60t127.5 -106t87 -162.5t33 -223q0 -123 -33 -221.5t-87 -162t-127.5 -106t-150 -60.5t-159.5 -18zM625 209 q113 0 170 89.5t57 244.5q0 147 -55.5 238t-171.5 91q-115 0 -172.5 -88t-57.5 -241q0 -96 21.5 -168t74.5 -119t134 -47zM782 1188q-51 0 -96.5 18t-73.5 39.5t-62 39.5t-63 18q-84 0 -84 -111h-178q0 326 244 326q51 0 96.5 -18t73.5 -39.5t62 -39.5t63 -18q84 0 84 110 h176q0 -325 -242 -325z" />
<glyph unicode="&#xf6;" horiz-adv-x="1247" d="M625 -23q-83 0 -160 18t-150.5 60.5t-128 106t-87.5 162t-33 221.5q0 124 33 223t87 162.5t127.5 106t150.5 60t161 17.5q83 0 159.5 -17.5t150 -60t127.5 -106t87 -162.5t33 -223q0 -123 -33 -221.5t-87 -162t-127.5 -106t-150 -60.5t-159.5 -18zM625 209 q113 0 170 89.5t57 244.5q0 147 -55.5 238t-171.5 91q-115 0 -172.5 -88t-57.5 -241q0 -96 21.5 -168t74.5 -119t134 -47zM696 1196v303h279v-303h-279zM262 1196v303h279v-303h-279z" />
<glyph unicode="&#xf7;" horiz-adv-x="1323" d="M522 991v244h277v-244h-277zM137 588v260h1049v-260h-1049zM522 197v243h277v-243h-277z" />
<glyph unicode="&#xf8;" horiz-adv-x="1247" d="M1079 907q103 -141 103 -362q0 -123 -33 -221.5t-87 -162t-127.5 -106t-150 -60.5t-159.5 -18q-178 0 -314 78l-131 -141l-129 125l125 135q-110 142 -110 371q0 124 33 223t87 162.5t127.5 106t150.5 60t161 17.5q185 0 323 -86l119 131l129 -123zM401 410l367 415 q-54 54 -143 54q-118 0 -178 -90.5t-60 -245.5q0 -76 14 -133zM850 664l-367 -410q58 -49 142 -49q116 0 175.5 91t59.5 247q0 59 -10 121z" />
<glyph unicode="&#xf9;" horiz-adv-x="1265" d="M434 -23q-147 0 -233 78t-86 240v797h329v-701q0 -75 31 -113t98 -38q109 0 238 110v742h330v-1092h-330v170q-152 -193 -377 -193zM582 1208l-305 355h331l191 -355h-217z" />
<glyph unicode="&#xfa;" horiz-adv-x="1265" d="M434 -23q-147 0 -233 78t-86 240v797h329v-701q0 -75 31 -113t98 -38q109 0 238 110v742h330v-1092h-330v170q-152 -193 -377 -193zM448 1208l191 355h331l-305 -355h-217z" />
<glyph unicode="&#xfb;" horiz-adv-x="1265" d="M434 -23q-147 0 -233 78t-86 240v797h329v-701q0 -75 31 -113t98 -38q109 0 238 110v742h330v-1092h-330v170q-152 -193 -377 -193zM251 1212l265 351h221l264 -351h-186l-191 152l-184 -152h-189z" />
<glyph unicode="&#xfc;" horiz-adv-x="1265" d="M434 -23q-147 0 -233 78t-86 240v797h329v-701q0 -75 31 -113t98 -38q109 0 238 110v742h330v-1092h-330v170q-152 -193 -377 -193zM700 1196v303h279v-303h-279zM266 1196v303h279v-303h-279z" />
<glyph unicode="&#xfd;" horiz-adv-x="1146" d="M297 -418q-172 0 -311 39l69 254q112 -29 207 -29q54 0 86.5 22t52.5 73l21 53l-418 1098h340l240 -709h4l241 709h320l-459 -1207q-40 -100 -86.5 -163.5t-123.5 -101.5t-183 -38zM381 1208l191 355h331l-305 -355h-217z" />
<glyph unicode="&#xfe;" horiz-adv-x="1277" d="M125 -410v1926h330v-590q138 188 336 188q192 0 305.5 -146t113.5 -421t-115 -419t-309 -144q-202 0 -331 145v-539h-330zM674 231q102 0 154.5 81.5t52.5 232.5q0 141 -52 219t-159 78q-108 0 -215 -107v-403q56 -53 105.5 -77t113.5 -24z" />
<glyph unicode="&#xff;" horiz-adv-x="1146" d="M297 -418q-172 0 -311 39l69 254q112 -29 207 -29q54 0 86.5 22t52.5 73l21 53l-418 1098h340l240 -709h4l241 709h320l-459 -1207q-40 -100 -86.5 -163.5t-123.5 -101.5t-183 -38zM659 1196v303h279v-303h-279zM225 1196v303h279v-303h-279z" />
<glyph unicode="&#x152;" horiz-adv-x="2314" d="M797 -29q-112 0 -215.5 30t-194.5 94t-159 155.5t-107 222t-39 285.5t39 285.5t107 221.5t159 155t194.5 94t215.5 30q239 0 411 -158v130h998v-279h-699v-326h506v-264h-506v-377h736v-270h-1035v131q-174 -160 -411 -160zM797 240q175 0 277 140t102 378 q0 237 -102 373.5t-277 136.5q-177 0 -280 -136.5t-103 -373.5q0 -238 103 -378t280 -140z" />
<glyph unicode="&#x153;" horiz-adv-x="1951" d="M623 -23q-83 0 -159.5 18t-150 60.5t-127.5 106t-87 162t-33 221.5q0 124 32.5 223t86.5 162.5t127.5 106t150 60t160.5 17.5q118 0 217 -51t168 -154q71 102 170.5 153.5t205.5 51.5q77 0 144 -15t135 -56.5t116 -107.5t78.5 -176t30.5 -253v-49h-721 q10 -129 76.5 -188.5t175.5 -59.5q91 0 176.5 36.5t145.5 92.5l129 -197q-191 -164 -475 -164q-120 0 -222.5 48.5t-171.5 144.5q-66 -97 -164 -145t-214 -48zM1169 651h424q-23 226 -211 226q-80 0 -137 -55.5t-76 -170.5zM623 217q115 0 171 85.5t56 240.5 q0 147 -54.5 235t-172.5 88q-115 0 -171.5 -85t-56.5 -238q0 -148 54.5 -237t173.5 -89z" />
<glyph unicode="&#x178;" horiz-adv-x="1415" d="M541 0v643l-523 873h344l347 -590l348 590h340l-525 -873v-643h-331zM784 1593v303h279v-303h-279zM350 1593v303h279v-303h-279z" />
<glyph unicode="&#x2c6;" horiz-adv-x="1132" d="M190 1212l265 351h221l264 -351h-186l-191 152l-184 -152h-189z" />
<glyph unicode="&#x2dc;" horiz-adv-x="1071" d="M692 1188q-51 0 -96.5 18t-73.5 39.5t-62 39.5t-63 18q-84 0 -84 -111h-178q0 326 244 326q51 0 96.5 -18t73.5 -39.5t62 -39.5t63 -18q84 0 84 110h176q0 -325 -242 -325z" />
<glyph unicode="&#x2000;" horiz-adv-x="982" />
<glyph unicode="&#x2001;" horiz-adv-x="1964" />
<glyph unicode="&#x2002;" horiz-adv-x="982" />
<glyph unicode="&#x2003;" horiz-adv-x="1964" />
<glyph unicode="&#x2004;" horiz-adv-x="654" />
<glyph unicode="&#x2005;" horiz-adv-x="491" />
<glyph unicode="&#x2006;" horiz-adv-x="327" />
<glyph unicode="&#x2007;" horiz-adv-x="327" />
<glyph unicode="&#x2008;" horiz-adv-x="245" />
<glyph unicode="&#x2009;" horiz-adv-x="392" />
<glyph unicode="&#x200a;" horiz-adv-x="109" />
<glyph unicode="&#x2010;" horiz-adv-x="731" d="M96 532v222h539v-222h-539z" />
<glyph unicode="&#x2011;" horiz-adv-x="731" d="M96 532v222h539v-222h-539z" />
<glyph unicode="&#x2012;" horiz-adv-x="731" d="M96 532v222h539v-222h-539z" />
<glyph unicode="&#x2013;" horiz-adv-x="1388" d="M113 500v276h1163v-276h-1163z" />
<glyph unicode="&#x2014;" horiz-adv-x="1931" d="M113 498v278h1706v-278h-1706z" />
<glyph unicode="&#x2018;" horiz-adv-x="577" d="M119 952v291l157 273h154l-88 -246h115v-318h-338z" />
<glyph unicode="&#x2019;" horiz-adv-x="577" d="M147 952l86 246h-114v318h338v-291l-156 -273h-154z" />
<glyph unicode="&#x201a;" horiz-adv-x="577" d="M147 -246l86 246h-114v317h338v-288l-156 -275h-154z" />
<glyph unicode="&#x201c;" horiz-adv-x="1064" d="M608 952v291l158 273h152l-87 -246h115v-318h-338zM119 952v291l157 273h154l-88 -246h115v-318h-338z" />
<glyph unicode="&#x201d;" horiz-adv-x="1064" d="M637 952l86 246h-115v318h338v-291l-158 -273h-151zM147 952l86 246h-114v318h338v-291l-156 -273h-154z" />
<glyph unicode="&#x201e;" horiz-adv-x="1064" d="M637 -246l86 246h-115v317h338v-288l-158 -275h-151zM147 -246l86 246h-114v317h338v-288l-156 -275h-154z" />
<glyph unicode="&#x2022;" horiz-adv-x="948" d="M473 438q-120 0 -199 79.5t-79 199.5q0 121 79 200.5t199 79.5q122 0 201.5 -79.5t79.5 -200.5q0 -120 -80 -199.5t-201 -79.5z" />
<glyph unicode="&#x2026;" horiz-adv-x="1730" d="M1266 0v317h352v-317h-352zM688 0v317h352v-317h-352zM113 0v317h352v-317h-352z" />
<glyph unicode="&#x202f;" horiz-adv-x="392" />
<glyph unicode="&#x2039;" horiz-adv-x="763" d="M389 0l-340 547l340 545h313l-325 -545l325 -547h-313z" />
<glyph unicode="&#x203a;" horiz-adv-x="763" d="M61 0l326 547l-326 545h314l340 -545l-340 -547h-314z" />
<glyph unicode="&#x205f;" horiz-adv-x="491" />
<glyph unicode="&#x20ac;" horiz-adv-x="1509" d="M254 813h-211v176h229q33 184 121.5 311t210 185.5t270.5 58.5q227 0 356 -105.5t193 -303.5l-282 -105q-42 132 -97.5 193t-162.5 61q-228 0 -285 -295h326v-176h-347v-51q0 -44 3 -88h344v-178h-324q29 -133 98 -202t189 -69q97 0 159.5 66.5t104.5 210.5l287 -90 q-66 -214 -204 -327.5t-349 -113.5q-231 0 -390.5 130.5t-213.5 394.5h-236v178h213q-2 29 -2 86v53z" />
<glyph unicode="&#x2122;" horiz-adv-x="1894" d="M877 649v867h305l157 -576l160 576h301v-867h-217v565l-162 -565h-184l-162 561v-561h-198zM295 649v682h-238v185h699v-185h-238v-682h-223z" />
<glyph unicode="&#x25fc;" horiz-adv-x="1095" d="M0 1096h1096v-1096h-1096v1096z" />
<glyph unicode="&#xfb01;" horiz-adv-x="1357" d="M879 1223v282h331v-282h-331zM223 0v852h-182v240h182v75q0 357 340 357q45 0 106.5 -5.5t78.5 -9.5v-227q-18 6 -80 6q-117 0 -117 -131v-65h201v-240h-201v-852h-328zM881 0v1092h327v-1092h-327z" />
<glyph unicode="&#xfb02;" horiz-adv-x="1349" d="M223 0v852h-182v240h182v75q0 357 340 357q45 0 106.5 -5.5t78.5 -9.5v-227q-18 6 -80 6q-117 0 -117 -131v-65h201v-240h-201v-852h-328zM881 0v1516h327v-1516h-327z" />
</font>
</defs></svg> 